{
  "project_info": {
    "project_number": "910840649505",
    "firebase_url": "https://bitotsav-1e795.firebaseio.com",
    "project_id": "bitotsav-1e795",
    "storage_bucket": "bitotsav-1e795.appspot.com"
  },
  "client": [
    {
      "client_info": {
        "mobilesdk_app_id": "1:910840649505:android:2ec382da8ff4ddf7",
        "android_client_info": {
          "package_name": "com.example.lenovo.bitotsavclan"
        }
      },
      "oauth_client": [
        {
          "client_id": "910840649505-p20t3ekbbsjrclq8g1jnouum45tg7rpa.apps.googleusercontent.com",
          "client_type": 1,
          "android_info": {
            "package_name": "com.example.lenovo.bitotsavclan",
            "certificate_hash": "a10cc59f8f497e0588f2640d037969827a613118"
          }
        },
        {
          "client_id": "910840649505-tlf8p24ee12u5u5n6b6inm8mvi119jls.apps.googleusercontent.com",
          "client_type": 3
        }
      ],
      "api_key": [
        {
          "current_key": "AIzaSyAvT0xmxVEGOKR3-kEglbhtT8xg4Ix3Dpo"
        }
      ],
      "services": {
        "appinvite_service": {
          "other_platform_oauth_client": [
            {
              "client_id": "910840649505-tlf8p24ee12u5u5n6b6inm8mvi119jls.apps.googleusercontent.com",
              "client_type": 3
            }
          ]
        }
      }
    }
  ],
  "configuration_version": "1"
}